…
### `get_tournament_games()`

This function returns a tournament’s game results data.

``` r
## Return game data for 2020's Black Ball Open.
get_tournament_games("Black Ball Open", year = 2020, world_tour = TRUE)
#> Scraping http://www.squashinfo.com/results?start=1
#> Scraping http://www.squashinfo.com/results?start=2
#> Scraping http://www.squashinfo.com/results?start=3
#> Scraping http://www.squashinfo.com/events/8425-mens-black-ball-open-2020
#> # A tibble: 119 x 15
#>    tournament_name category tournament_date player_1 player_2 player_1_seed
#>    <chr>           <chr>    <date>          <chr>    <chr>            <dbl>
#>  1 CIB Black Ball~ Men's    2020-12-18      Fares D~ Ali Far~             9
#>  2 CIB Black Ball~ Men's    2020-12-18      Fares D~ Ali Far~             9
#>  3 CIB Black Ball~ Men's    2020-12-18      Fares D~ Ali Far~             9
#>  4 CIB Black Ball~ Men's    2020-12-18      Fares D~ Ali Far~             9
#>  5 CIB Black Ball~ Men's    2020-12-18      Fares D~ Ali Far~             9
#>  6 CIB Black Ball~ Men's    2020-12-18      Ali Far~ Mostafa~             1
#>  7 CIB Black Ball~ Men's    2020-12-18      Ali Far~ Mostafa~             1
#>  8 CIB Black Ball~ Men's    2020-12-18      Ali Far~ Mostafa~             1
#>  9 CIB Black Ball~ Men's    2020-12-18      Fares D~ Tarek M~             9
#> 10 CIB Black Ball~ Men's    2020-12-18      Fares D~ Tarek M~             9
#> # ... with 109 more rows, and 9 more variables: player_2_seed <dbl>,
#> #   player_1_nationality <chr>, player_2_nationality <chr>, round <ord>,
#> #   match <int>, game <int>, player_1_score <dbl>, player_2_score <dbl>,
#> #   game_winner <chr>
```
…
<!-- end list -->

``` r
## Get tidy matchup stats for Paul Coll vs Fares Dessouky
get_matchup("Paul Coll", "Fares Dessouky", category = "mens", tidy = FALSE)
#> # A tibble: 23 x 2
#>    metric               value         
#>    <chr>                <chr>         
#>  1 player_1_rank        4             
#>  2 player_1             Paul Coll     
#>  3 player_2_rank        8             
#>  4 player_2             Fares Dessouky
#>  5 matches_played       2             
#>  6 player_1_matches_won 2             
#>  7 player_2_matches_won 0             
#>  8 matches_3_2          0             
#>  9 matches_3_1          1             
#> 10 matches_3_0          1             
#> # ... with 13 more rows
```
…
